Multiple Linear Regression
…
`\(\hat {\text{bwt}_i} = b_0 + b_1 \text{ gestation}_i + b_2 \text{ smoke}_i\)`

`\(\hat {\text{bwt}_i} = -0.932 + (0.443 \times 280) + (-8.09 \times 1)\)`

---

```r
babies %>% 
  modelr::add_predictions(model_gs) %>% 
  select(bwt, gestation, smoke, pred)
```

```
## # A tibble: 1,236 x 4
##      bwt gestation smoke  pred
##    <int>     <int> <int> <dbl>
##  1   120       284     0  125.
##  2   113       282     0  124.
##  3   128       279     1  115.
##  4   123        NA     0   NA 
##  5   108       282     1  116.
##  6   136       286     0  126.
##  7   138       244     0  107.
##  8   132       245     0  108.
##  9   120       289     0  127.
## 10   143       299     1  123.
## # … with 1,226 more rows
```

---

```r
babies %>% 
  modelr::add_predictions(model_gs) %>% 
  modelr::add_residuals(model_gs) %>% 
  select(bwt, gestation, smoke, pred, resid)
```

```
## # A tibble: 1,236 x 5
##      bwt gestation smoke  pred  resid
##    <int>     <int> <int> <dbl>  <dbl>
##  1   120       284     0  125.  -4.84
##  2   113       282     0  124. -11.0 
##  3   128       279     1  115.  13.5 
##  4   123        NA     0   NA   NA   
##  5   108       282     1  116.  -7.87
##  6   136       286     0  126.  10.3 
##  7   138       244     0  107.  30.9 
##  8   132       245     0  108.  24.4 
##  9   120       289     0  127.  -7.05
## 10   143       299     1  123.  19.6 
## # … with 1,226 more rows
```
